%YAML 1.1
%TAG !u! tag:unity3d.com,2011:
--- !u!687078895 &4343727234628468602
SpriteAtlas:
  m_ObjectHideFlags: 0
  m_CorrespondingSourceObject: {fileID: 0}
  m_PrefabInstance: {fileID: 0}
  m_PrefabAsset: {fileID: 0}
  m_Name: head
  m_EditorData:
    serializedVersion: 2
    textureSettings:
      serializedVersion: 2
      anisoLevel: 1
      compressionQuality: 50
      maxTextureSize: 2048
      textureCompression: 0
      filterMode: 1
      generateMipMaps: 0
      readable: 0
      crunchedCompression: 0
      sRGB: 1
    platformSettings:
    - serializedVersion: 3
      m_BuildTarget: DefaultTexturePlatform
      m_MaxTextureSize: 2048
      m_ResizeAlgorithm: 0
      m_TextureFormat: -1
      m_TextureCompression: 1
      m_CompressionQuality: 50
      m_CrunchedCompression: 0
      m_AllowsAlphaSplitting: 0
      m_Overridden: 0
      m_AndroidETC2FallbackOverride: 0
      m_ForceMaximumCompressionQuality_BC6H_BC7: 0
    packingSettings:
      serializedVersion: 2
      padding: 4
      blockOffset: 1
      allowAlphaSplitting: 0
      enableRotation: 1
      enableTightPacking: 0
    secondaryTextureSettings: {}
    variantMultiplier: 1
    packables:
    - {fileID: 2800000, guid: e9103f58c316d3048b2de16f4f05a15d, type: 3}
    - {fileID: 2800000, guid: 3d845587574e2074c993f1dbde524baf, type: 3}
    - {fileID: 2800000, guid: 4d3e2fbffc33771468908a6647e71159, type: 3}
    - {fileID: 2800000, guid: b967fcb5c5f90494f8f77a0228ce8313, type: 3}
    - {fileID: 2800000, guid: 5552f5196862d104ca196acf3b854b19, type: 3}
    - {fileID: 2800000, guid: 60a1a67f98d71c34f8b6e098097fcde1, type: 3}
    - {fileID: 2800000, guid: 78369e348381e1d4388648660fe9165e, type: 3}
    - {fileID: 2800000, guid: 31d283ca35f672d469320100e947b5e1, type: 3}
    - {fileID: 2800000, guid: 7509ccae2aa3a394d89cfc81529be6d1, type: 3}
    - {fileID: 2800000, guid: 308ab77a8ef860b4e987c4cc7c8ed932, type: 3}
    - {fileID: 2800000, guid: b967fcb5c5f90494f8f77a0228ce8313, type: 3}
    - {fileID: 2800000, guid: 789cddafe32a15843be9736802d628a5, type: 3}
    - {fileID: 2800000, guid: 04f3674fc48c5c046ac1011222fda0f6, type: 3}
    - {fileID: 2800000, guid: 11dfb3f21228a2346a77324724b1166a, type: 3}
    - {fileID: 2800000, guid: a5320454ad30a4240ae554056700d58d, type: 3}
    - {fileID: 2800000, guid: 4cc4400a4cb67074e9750b9c5fd231f4, type: 3}
    - {fileID: 2800000, guid: a76c645c4419b7a4c855666f3785587b, type: 3}
    bindAsDefault: 1
    isAtlasV2: 0
    cachedData: {fileID: 0}
  m_MasterAtlas: {fileID: 0}
  m_PackedSprites:
  - {fileID: 21300000, guid: 11dfb3f21228a2346a77324724b1166a, type: 3}
  - {fileID: 21300000, guid: 78369e348381e1d4388648660fe9165e, type: 3}
  - {fileID: 21300000, guid: a5320454ad30a4240ae554056700d58d, type: 3}
  - {fileID: 21300000, guid: b967fcb5c5f90494f8f77a0228ce8313, type: 3}
  - {fileID: 21300000, guid: 3d845587574e2074c993f1dbde524baf, type: 3}
  - {fileID: 21300000, guid: e9103f58c316d3048b2de16f4f05a15d, type: 3}
  - {fileID: 21300000, guid: 5552f5196862d104ca196acf3b854b19, type: 3}
  - {fileID: 21300000, guid: 4cc4400a4cb67074e9750b9c5fd231f4, type: 3}
  - {fileID: 21300000, guid: 308ab77a8ef860b4e987c4cc7c8ed932, type: 3}
  - {fileID: 21300000, guid: 31d283ca35f672d469320100e947b5e1, type: 3}
  - {fileID: 21300000, guid: a76c645c4419b7a4c855666f3785587b, type: 3}
  - {fileID: 21300000, guid: 7509ccae2aa3a394d89cfc81529be6d1, type: 3}
  - {fileID: 21300000, guid: 04f3674fc48c5c046ac1011222fda0f6, type: 3}
  - {fileID: 21300000, guid: 60a1a67f98d71c34f8b6e098097fcde1, type: 3}
  - {fileID: 21300000, guid: 789cddafe32a15843be9736802d628a5, type: 3}
  - {fileID: 21300000, guid: 4d3e2fbffc33771468908a6647e71159, type: 3}
  m_PackedSpriteNamesToIndex:
  - "\u5099\u75282"
  - "\u5A1B\u6A02"
  - "\u65B0\u805E\u982D\u50CF01"
  - "\u623F\u6771"
  - "\u4ED9\u4ED9\u5927\u982D\u8CBC"
  - "\u4FDD\u9463\u982D\u8CBC00"
  - "\u533F\u540DB"
  - "\u65B0\u805E\u982D\u50CF02"
  - "\u5F69\u599D"
  - "\u5C0F\u795E\u901A"
  - "\u65B0\u805E\u982D\u50CF03"
  - "\u5E97\u9577"
  - "\u970F\u970F"
  - "\u5929\u6C23\u9810\u5831"
  - "\u6B63\u9EDE\u65B0\u805E"
  - "\u5099\u7528"
  m_RenderDataMap: {}
  m_Tag: head
  m_IsVariant: 0
