%YAML 1.1
%TAG !u! tag:unity3d.com,2011:
--- !u!1 &3313203181762255359
GameObject:
  m_ObjectHideFlags: 0
  m_CorrespondingSourceObject: {fileID: 0}
  m_PrefabInstance: {fileID: 0}
  m_PrefabAsset: {fileID: 0}
  serializedVersion: 6
  m_Component:
  - component: {fileID: 7677968887831758844}
  - component: {fileID: 1829217967776207801}
  m_Layer: 5
  m_Name: FashionNews
  m_TagString: Untagged
  m_Icon: {fileID: 0}
  m_NavMeshLayer: 0
  m_StaticEditorFlags: 0
  m_IsActive: 1
--- !u!224 &7677968887831758844
RectTransform:
  m_ObjectHideFlags: 0
  m_CorrespondingSourceObject: {fileID: 0}
  m_PrefabInstance: {fileID: 0}
  m_PrefabAsset: {fileID: 0}
  m_GameObject: {fileID: 3313203181762255359}
  m_LocalRotation: {x: 0, y: 0, z: 0, w: 1}
  m_LocalPosition: {x: 0, y: 0, z: 0}
  m_LocalScale: {x: 1, y: 1, z: 1}
  m_Children: []
  m_Father: {fileID: 0}
  m_RootOrder: 0
  m_LocalEulerAnglesHint: {x: 0, y: 0, z: 0}
  m_AnchorMin: {x: 0.5, y: 0.5}
  m_AnchorMax: {x: 0.5, y: 0.5}
  m_AnchoredPosition: {x: 0, y: 0}
  m_SizeDelta: {x: 100, y: 100}
  m_Pivot: {x: 0.5, y: 0.5}
--- !u!114 &1829217967776207801
MonoBehaviour:
  m_ObjectHideFlags: 0
  m_CorrespondingSourceObject: {fileID: 0}
  m_PrefabInstance: {fileID: 0}
  m_PrefabAsset: {fileID: 0}
  m_GameObject: {fileID: 3313203181762255359}
  m_Enabled: 1
  m_EditorHideFlags: 0
  m_Script: {fileID: 11500000, guid: 33e212061ac2b1049bfc4dcd33074c23, type: 3}
  m_Name: 
  m_EditorClassIdentifier: 
  countType: 1
  countLimit: 24
  OnDutyManagers: []
  PostClip:
  - Constant: 0
    Sco: {fileID: 11400000, guid: 9bc0f4779bcc8524aa7f7f368dd096ae, type: 2}
  - Constant: 0
    Sco: {fileID: 11400000, guid: 91b7b887af06c314cb53e259936dae2a, type: 2}
  - Constant: 0
    Sco: {fileID: 11400000, guid: 2e6189db41a9bea4886108548e16b7d7, type: 2}
  - Constant: 0
    Sco: {fileID: 11400000, guid: da42e0b727ce79f43880d5c17441091e, type: 2}
