id,text,file,node,lineNumber
line:0077e7e,優良品格? 你的評價比地平線還低,做公益拉,Start,6
line:054a650,我看妳很盲喔,做公益拉,Start,8
line:0c89978,熱心公益?不過是譁眾取寵,做公益拉,Start,10
line:033f5c4,高san:???,做公益拉,Step1_Response1,18
line:0cae541,你沒發現他在群組裡都在說謊嗎?,做公益拉,Step1_Response1,19
line:053bdce,島輝:臭酸民 少在這邊發臭 滾!,做公益拉,Fail,27
line:0b862b2,陳太太:什麼意思?年輕人熱心做慈善有什麼問題嗎?,做公益拉,Step1_Response2,41
line:07ad7bb,你沒發現他在群組裡都在說謊嗎?,做公益拉,Step1_Response2,42
line:01de365,老人不會懂啦!,做公益拉,Step1_Response2,44
line:03f018a,NMSL:這婊子 太扯了ww,做公益拉,Success,52
