id,text,file,node,lineNumber
line:0be49fb,你好,PB_Sale_1,Start,6
line:00efa47,繳交情報,PB_Sale_1,Start,7
line:0c8828f,你有什麼情報呢?,PB_Sale_1,Start,8
line:0b8530d,影后的閨房密史,PB_Sale_1,Start,9
line:03c3956,哇喔!!您真內行!這就是我要的~,PB_Sale_1,Start,10
line:0f650c1,不客氣(獲得100),PB_Sale_1,Start,11
