%YAML 1.1
%TAG !u! tag:unity3d.com,2011:
--- !u!687078895 &4343727234628468602
SpriteAtlas:
  m_ObjectHideFlags: 0
  m_CorrespondingSourceObject: {fileID: 0}
  m_PrefabInstance: {fileID: 0}
  m_PrefabAsset: {fileID: 0}
  m_Name: WinkUI
  m_EditorData:
    serializedVersion: 2
    textureSettings:
      serializedVersion: 2
      anisoLevel: 1
      compressionQuality: 50
      maxTextureSize: 2048
      textureCompression: 0
      filterMode: 1
      generateMipMaps: 0
      readable: 0
      crunchedCompression: 0
      sRGB: 1
    platformSettings: []
    packingSettings:
      serializedVersion: 2
      padding: 4
      blockOffset: 1
      allowAlphaSplitting: 0
      enableRotation: 1
      enableTightPacking: 1
    secondaryTextureSettings: {}
    variantMultiplier: 1
    packables:
    - {fileID: 2800000, guid: 472c35d1c1a3b02429454dd3a0e0add5, type: 3}
    - {fileID: 2800000, guid: 7e664df3a5fbaa04592f72416f793b22, type: 3}
    - {fileID: 2800000, guid: 4354ebb060b35294aafe581817be813b, type: 3}
    - {fileID: 2800000, guid: 738f58f40009a8d47baeb51c478fbf38, type: 3}
    - {fileID: 2800000, guid: 43fe77d5ff824c44aadb8e3d57d2dce5, type: 3}
    - {fileID: 2800000, guid: 59af9c2b3e0bb714ba0423253ff75712, type: 3}
    - {fileID: 2800000, guid: 1d2c557437f520e41b6e260ec76be612, type: 3}
    - {fileID: 2800000, guid: dd22b2a0914b4a9489a9f1c697440fae, type: 3}
    - {fileID: 2800000, guid: a5bd011b0ce6e06418ded5a98239b1db, type: 3}
    - {fileID: 2800000, guid: ee0aacbe5e99d1149823416a40c60224, type: 3}
    - {fileID: 2800000, guid: 3f80d17cf97e0d1419141e49345cc59c, type: 3}
    - {fileID: 2800000, guid: 98e7c644b732c3b44982fba9bb48fdb2, type: 3}
    - {fileID: 2800000, guid: e3dcd31a840dbf4449112c3cb3dd3f86, type: 3}
    - {fileID: 2800000, guid: 29cc6dd372585414ab2fc0973164dc94, type: 3}
    - {fileID: 2800000, guid: e6513a6fe07cae448901a59d6a8da280, type: 3}
    - {fileID: 2800000, guid: ad998179a095be742b1957f190f8961e, type: 3}
    - {fileID: 2800000, guid: 2eb6b67c5ba78e345902e2fa9d01b39a, type: 3}
    - {fileID: 2800000, guid: 4fb31912c82f5f2419932e3134401b98, type: 3}
    - {fileID: 2800000, guid: 7e56211131011454691b55823bc1ac97, type: 3}
    - {fileID: 2800000, guid: f8a7224086a0b884880bf3205fd9590d, type: 3}
    - {fileID: 2800000, guid: d119dcff012c48c4a82c436e701446ee, type: 3}
    - {fileID: 2800000, guid: 17bc1d6f96962424db9bc0ec3b914611, type: 3}
    - {fileID: 2800000, guid: 0488ea005e045cb4486dd9bb053fb8e3, type: 3}
    - {fileID: 2800000, guid: b829f0e1faebb6f41aaf6329757fc25e, type: 3}
    - {fileID: 2800000, guid: b4484d72292bd4b40a3f9144b2b011a0, type: 3}
    - {fileID: 2800000, guid: 89566aae15b90bf4a9e9fd5acd1824ea, type: 3}
    - {fileID: 2800000, guid: 2af99819ac90edc448401f61cbcad7cd, type: 3}
    - {fileID: 2800000, guid: da9aee8b7ec42b342b3fbd0ab627761d, type: 3}
    - {fileID: 2800000, guid: eb39c7a28b90bc94b98aed7242748647, type: 3}
    - {fileID: 2800000, guid: 6a36afe77c041614a8130ef4b0b16335, type: 3}
    - {fileID: 2800000, guid: b5f4dce3ef4b76a49b1e82247856a258, type: 3}
    - {fileID: 2800000, guid: 368f73ad849b0e642a0ab884b73fe5d5, type: 3}
    - {fileID: 2800000, guid: 6997eb0e91a16ec479b89d801008161f, type: 3}
    - {fileID: 2800000, guid: c96def4ac75d9a54da31c47848db1618, type: 3}
    - {fileID: 2800000, guid: 56ac8cb3aa9fe98418329ec883d9ca64, type: 3}
    bindAsDefault: 1
    isAtlasV2: 0
    cachedData: {fileID: 0}
  m_MasterAtlas: {fileID: 0}
  m_PackedSprites:
  - {fileID: 21300000, guid: 0488ea005e045cb4486dd9bb053fb8e3, type: 3}
  - {fileID: 21300000, guid: f8a7224086a0b884880bf3205fd9590d, type: 3}
  - {fileID: 21300000, guid: dd22b2a0914b4a9489a9f1c697440fae, type: 3}
  - {fileID: 21300000, guid: 4354ebb060b35294aafe581817be813b, type: 3}
  - {fileID: 21300000, guid: 7e56211131011454691b55823bc1ac97, type: 3}
  - {fileID: 21300000, guid: 472c35d1c1a3b02429454dd3a0e0add5, type: 3}
  - {fileID: 21300000, guid: b829f0e1faebb6f41aaf6329757fc25e, type: 3}
  - {fileID: 21300000, guid: 4fb31912c82f5f2419932e3134401b98, type: 3}
  - {fileID: 21300000, guid: b4484d72292bd4b40a3f9144b2b011a0, type: 3}
  - {fileID: 21300000, guid: eb39c7a28b90bc94b98aed7242748647, type: 3}
  - {fileID: 21300000, guid: 56ac8cb3aa9fe98418329ec883d9ca64, type: 3}
  - {fileID: 21300000, guid: 29cc6dd372585414ab2fc0973164dc94, type: 3}
  - {fileID: 21300000, guid: b5f4dce3ef4b76a49b1e82247856a258, type: 3}
  - {fileID: 21300000, guid: 7e664df3a5fbaa04592f72416f793b22, type: 3}
  - {fileID: 21300000, guid: 98e7c644b732c3b44982fba9bb48fdb2, type: 3}
  - {fileID: 21300000, guid: 1d2c557437f520e41b6e260ec76be612, type: 3}
  - {fileID: 21300000, guid: 738f58f40009a8d47baeb51c478fbf38, type: 3}
  - {fileID: 21300000, guid: 43fe77d5ff824c44aadb8e3d57d2dce5, type: 3}
  - {fileID: 21300000, guid: 6a36afe77c041614a8130ef4b0b16335, type: 3}
  - {fileID: 21300000, guid: 2af99819ac90edc448401f61cbcad7cd, type: 3}
  - {fileID: 21300000, guid: ad998179a095be742b1957f190f8961e, type: 3}
  - {fileID: 21300000, guid: e3dcd31a840dbf4449112c3cb3dd3f86, type: 3}
  - {fileID: 21300000, guid: 58e90c4af115a484baefd4a776daadc7, type: 3}
  - {fileID: 21300000, guid: c96def4ac75d9a54da31c47848db1618, type: 3}
  - {fileID: 21300000, guid: a5bd011b0ce6e06418ded5a98239b1db, type: 3}
  - {fileID: 21300000, guid: 59af9c2b3e0bb714ba0423253ff75712, type: 3}
  - {fileID: 21300000, guid: da9aee8b7ec42b342b3fbd0ab627761d, type: 3}
  - {fileID: 21300000, guid: 3f80d17cf97e0d1419141e49345cc59c, type: 3}
  - {fileID: 21300000, guid: 2eb6b67c5ba78e345902e2fa9d01b39a, type: 3}
  - {fileID: 21300000, guid: 368f73ad849b0e642a0ab884b73fe5d5, type: 3}
  - {fileID: 21300000, guid: 6997eb0e91a16ec479b89d801008161f, type: 3}
  - {fileID: 21300000, guid: 89566aae15b90bf4a9e9fd5acd1824ea, type: 3}
  - {fileID: 21300000, guid: ee0aacbe5e99d1149823416a40c60224, type: 3}
  - {fileID: 21300000, guid: e6513a6fe07cae448901a59d6a8da280, type: 3}
  - {fileID: 21300000, guid: 17bc1d6f96962424db9bc0ec3b914611, type: 3}
  - {fileID: 21300000, guid: d119dcff012c48c4a82c436e701446ee, type: 3}
  m_PackedSpriteNamesToIndex:
  - "\u9B45\u984F\u5716\u6A19TL\u6697"
  - "\u9B45\u984F\u500B\u4EBA\u6A94\u6848\u9053\u5177"
  - "\u6B63\u9EDE\u65B0\u805E(\u65B9)"
  - "\u5927\u5FC3\u6697"
  - "\u9650\u6642\u6846\u6846"
  - "\u56DE\u8986\u6309\u9215"
  - "\u9B45\u984F\u5716\u6A19\u500B\u4EBA\u9801\u4EAE"
  - "\u9078\u9805\u5E95\u5716(\u539F\u908A)"
  - "\u9B45\u984F\u5716\u6A19\u767C\u6587\u4EAE"
  - "\u9B45\u984F\u5716\u6A19\u8A0A\u606F\u4EAE"
  - "\u9B45\u984F\u804A\u5929\u6B04\u63D0\u9192"
  - "\u78BA\u8A8D\u6309\u9215"
  - "\u9B45\u984F\u767C\u6587\u4E0B\u6B04 (1)"
  - "\u5927\u5FC3\u4EAE"
  - "\u76F4\u7EBF 8"
  - "\u5F69\u599D\u65B0\u805E)\u65B9)"
  - "\u5A1B\u6A02\u65B0\u805E(\u65B9)"
  - "\u5C0F\u5FC3\u4EAE"
  - "\u9B45\u984F\u5716\u6A19\u8A0A\u606F\u6697"
  - "\u9B45\u984F\u5716\u6A19\u793E\u7FA4\u4EAE"
  - "\u9078\u64C7\u984C\u5E95\u5716"
  - "\u78BA\u8A8D\u6309\u9215(\u672A\u4EAE)"
  - "\u9B45\u984F\u4E0A\u5217"
  - "\u9B45\u984F\u804A\u5929\u6B04"
  - "\u7559\u8A00\u5716\u6A19"
  - "\u5C0F\u5FC3\u6697"
  - "\u9B45\u984F\u5716\u6A19\u793E\u7FA4\u6697"
  - "\u767C\u6587\u6309\u9215"
  - "\u9078\u64C7\u984C\u6846(\u7070)"
  - "\u9B45\u984F\u767C\u6587\u5206\u683C"
  - "\u9B45\u984F\u793E\u7FA4NEWS\u5B57"
  - "\u9B45\u984F\u5716\u6A19\u767C\u6587\u6697"
  - "\u7559\u8A00\u5E95\u5716"
  - "\u804A\u5929\u5BA4\u56DE\u5FA9"
  - "\u9B45\u984F\u5716\u6A19TL\u4EAE"
  - "\u9B45\u984F\u500B\u4EBA\u8CC7\u6599\u9053\u5177\u6B04"
  m_RenderDataMap: {}
  m_Tag: WinkUI
  m_IsVariant: 0
