id,text,file,node,lineNumber
line:0a637ba,匿名B: 她真的像他們說的那麼好嗎?,匿名B_7,Start,6
line:0260e1d,匿名B: 我想你已經知道了一些東西,匿名B_7,Start,7
line:03ba8cf,匿名B: 如何? 驚訝嗎?,匿名B_7,Start,8
line:0d0cae0,匿名B: 或是其實你一點都不意外,匿名B_7,Start,9
line:09e9e18,這並不代表什麼,匿名B_7,Start,10
line:06c37ac,意料之內,匿名B_7,Start,12
line:069d9c7,Player: 這些東西並不能代表什麼,匿名B_7,這並不代表什麼,20
line:06e791e,Player: 誰都有這種時期 而且歷史不能證明現在,匿名B_7,這並不代表什麼,21
line:062ddc1,匿名B: 哈 你真的非常有趣,匿名B_7,這並不代表什麼,22
line:0ec8eae,匿名B: 難不成你覺得光靠這東西去和那個女人對峙會有勝算嗎?,匿名B_7,這並不代表什麼,23
line:0a04dae,我沒有說過要去攻擊任何人,匿名B_7,這並不代表什麼,24
line:0d709d8,不要幫我擅作主張,匿名B_7,這並不代表什麼,26
line:09bf070,Player: 這是意料之內的事,匿名B_7,意料之內,34
line:05cd93f,Player: 誰都有這種時期 而且歷史不能證明現在,匿名B_7,意料之內,35
line:0fccbf6,匿名B: 哈 你真的非常有趣,匿名B_7,意料之內,36
line:073415f,匿名B: 難不成你覺得光靠這東西去和那個女人對峙會有勝算嗎?,匿名B_7,意料之內,37
line:07b5093,Player: (輸入中...)停頓2秒,匿名B_7,我沒有說過要去攻擊任何人,45
line:0372b67,Player: ......,匿名B_7,我沒有說過要去攻擊任何人,46
line:0f7e655,Player: 我沒有說要去攻擊任何人,匿名B_7,我沒有說過要去攻擊任何人,47
line:02da839,Player: (輸入中...)停頓2秒,匿名B_7,不要幫我擅作主張,55
line:06d65ec,Player: ......我沒有這樣說過,匿名B_7,不要幫我擅作主張,56
line:03ff8da,Player: 不要幫我擅作主張,匿名B_7,不要幫我擅作主張,57
line:07e0599,匿名B: 這些只不過是煽動人心的工具,匿名B_7,煽動人心的工具,65
line:0bf0c74,匿名B: 不知道要說你太天真還是太單純,匿名B_7,煽動人心的工具,66
line:0343fd2,匿名B: 你不想傷害人 那保護自己總可以吧?,匿名B_7,煽動人心的工具,67
line:0f0a970,Player: 我沒有需要保護自己的地方,匿名B_7,煽動人心的工具,68
line:0b08198,匿名B: 哇 比我料想的還要快,匿名B_7,收到霏霏私訊,76
line:0ffd6b3,匿名B: 年輕人真是沉不住氣,匿名B_7,收到霏霏私訊,77
line:0d9eee0,Player: ...,匿名B_7,收到霏霏私訊,78
line:05569c7,Player: 你怎麼知道,匿名B_7,收到霏霏私訊,79
line:0f0aed4,Player: (輸入中...)停頓1秒,匿名B_7,收到霏霏私訊,80
line:0ca7fe4,匿名B: 咯咯 親愛的加油喔,匿名B_7,收到霏霏私訊,81
