id,text,file,node,lineNumber
line:00bb091,匿名B:是你吧,匿名B_1,Start,6
line:072a423,蛤?,匿名B_1,Start,7
line:06446b1,匿名B:咯咯咯咯,匿名B_1,Start,8
line:01c39c1,匿名B:是你吧,匿名B_1,Start,9
line:097601f,匿名B:那個女人愚蠢故事中的主角,匿名B_1,Start,10
line:07df354,(封鎖該帳號),匿名B_1,Start,11
line:0d606ad,匿名B:唉 年輕人別這麼急躁,匿名B_1,Start,12
line:01f6d3e,匿名B:我來這不是為了要成為你的敵人,匿名B_1,Start,13
line:05ba908,匿名B:咯咯咯咯,匿名B_1,Start,14
line:08a99ca,匿名B:我們來做個朋友吧,匿名B_1,Start,15
line:0e79cd5,......,匿名B_1,Start,16
line:05a1d1c,Player:我......,匿名B_1,Start,17
line:098c696,匿名B:歐親愛的 我知道你很開心,匿名B_1,Start,18
line:0f478fb,匿名B:現在全網的人都在討論你喔,匿名B_1,Start,19
line:09f1558,匿名B:一夕爆紅的滋味如何?,匿名B_1,Start,20
line:000c829,不好 非常不好,匿名B_1,Start,21
line:0d15376,Player:可以請你不要再說了嗎?,匿名B_1,Start,22
line:04a6ac2,匿名B:噢親愛的 你難道不想知道大家都怎麼評價你和那個女人嗎?,匿名B_1,Start,23
line:06ffe96,Player:...不要再用那個稱呼叫我 我和你沒有任何關係,匿名B_1,Start,24
line:0d8e70e,Player:我對此沒有任何的興趣,匿名B_1,Start,25
line:03192e5,Player:請適可而止 不要怪我檢舉你騷擾,匿名B_1,Start,26
line:0278639,匿名B:咯咯咯咯,匿名B_1,Start,27
line:0499eb5,匿名B:去看看那個女人的粉絲團吧,匿名B_1,Start,28
line:0a53c1a,匿名B:summyforyou0215,匿名B_1,Start,30
line:08b3323,匿名B:我想你會改觀的,匿名B_1,Start,33
