%YAML 1.1
%TAG !u! tag:unity3d.com,2011:
--- !u!687078895 &4343727234628468602
SpriteAtlas:
  m_ObjectHideFlags: 0
  m_CorrespondingSourceObject: {fileID: 0}
  m_PrefabInstance: {fileID: 0}
  m_PrefabAsset: {fileID: 0}
  m_Name: homepage_icon
  m_EditorData:
    serializedVersion: 2
    textureSettings:
      serializedVersion: 2
      anisoLevel: 1
      compressionQuality: 50
      maxTextureSize: 2048
      textureCompression: 0
      filterMode: 1
      generateMipMaps: 0
      readable: 0
      crunchedCompression: 0
      sRGB: 1
    platformSettings:
    - serializedVersion: 3
      m_BuildTarget: DefaultTexturePlatform
      m_MaxTextureSize: 2048
      m_ResizeAlgorithm: 0
      m_TextureFormat: -1
      m_TextureCompression: 1
      m_CompressionQuality: 50
      m_CrunchedCompression: 0
      m_AllowsAlphaSplitting: 0
      m_Overridden: 0
      m_AndroidETC2FallbackOverride: 0
      m_ForceMaximumCompressionQuality_BC6H_BC7: 0
    packingSettings:
      serializedVersion: 2
      padding: 4
      blockOffset: 1
      allowAlphaSplitting: 0
      enableRotation: 1
      enableTightPacking: 0
    secondaryTextureSettings: {}
    variantMultiplier: 1
    packables:
    - {fileID: 2800000, guid: 322560dd1e1839845badab0d2dcc2377, type: 3}
    - {fileID: 2800000, guid: 90064f176a41f71458434ecc28bb8b5f, type: 3}
    - {fileID: 2800000, guid: e6b5aea7143a83c47ab146f544a94893, type: 3}
    bindAsDefault: 1
    isAtlasV2: 0
    cachedData: {fileID: 0}
  m_MasterAtlas: {fileID: 0}
  m_PackedSprites:
  - {fileID: 21300000, guid: 90064f176a41f71458434ecc28bb8b5f, type: 3}
  - {fileID: 21300000, guid: e6b5aea7143a83c47ab146f544a94893, type: 3}
  - {fileID: 21300000, guid: 322560dd1e1839845badab0d2dcc2377, type: 3}
  m_PackedSpriteNamesToIndex:
  - "\u6BD4\u4F8B"
  - "\u77E9\u5F62 327"
  - Icon awesome-heartbeat
  m_RenderDataMap: {}
  m_Tag: homepage_icon
  m_IsVariant: 0
